[200]||24/Dec/2016:00:10:15 -0800||10.212.16.173||-||POST /api/web/query/queryAddressByZipCode.json HTTP/1.1||-||163||-||0.029||Apache-HttpClient/4.5.1 (Java/1.7.0_76)||-||us.address.go.lemall.com||up_addr:10.120.16.171:6011||up_resp:0.029||up_status:200||10.212.23.192
[200]||24/Dec/2016:00:40:15 -0800||10.212.16.201||-||POST /api/web/query/queryAddressByZipCode.json HTTP/1.1||-||165||-||0.023||Apache-HttpClient/4.5.1 (Java/1.7.0_76)||-||us.address.go.lemall.com||up_addr:10.120.16.171:6011||up_resp:0.022||up_status:200||10.212.23.192
[200]||24/Dec/2016:01:10:15 -0800||10.212.16.179||-||POST /api/web/query/queryAddressByZipCode.json HTTP/1.1||-||165||-||0.028||Apache-HttpClient/4.5.1 (Java/1.7.0_76)||-||us.address.go.lemall.com||up_addr:10.120.16.160:6011||up_resp:0.028||up_status:200||10.212.23.192
[200]||24/Dec/2016:01:13:53 -0800||10.212.16.163||-||POST /api/web/query/childArea.json HTTP/1.1||-||2555||-||0.070||Jakarta Commons-HttpClient/3.1||-||us.address.go.lemall.com||up_addr:10.120.16.149:6011||up_resp:0.069||up_status:200||10.212.23.192
[200]||24/Dec/2016:01:14:01 -0800||10.212.16.176||-||POST /api/web/query/childArea.json HTTP/1.1||-||2555||-||0.054||Jakarta Commons-HttpClient/3.1||-||us.address.go.lemall.com||up_addr:10.120.16.141:6011||up_resp:0.053||up_status:200||10.212.23.192
[200]||24/Dec/2016:01:20:31 -0800||10.212.16.194||-||POST /api/web/query/queryAddressByZipCode.json HTTP/1.1||-||163||-||0.021||Apache-HttpClient/4.5.1 (Java/1.7.0_76)||-||us.address.go.lemall.com||up_addr:10.120.16.171:6011||up_resp:0.021||up_status:200||10.212.23.192
[200]||24/Dec/2016:01:40:31 -0800||10.212.16.163||-||POST /api/web/query/queryAddressByZipCode.json HTTP/1.1||-||165||-||0.021||Apache-HttpClient/4.5.1 (Java/1.7.0_76)||-||us.address.go.lemall.com||up_addr:10.120.16.171:6011||up_resp:0.021||up_status:200||10.212.23.192
[200]||24/Dec/2016:01:51:05 -0800||10.212.16.162||-||POST /api/web/query/queryAddressByZipCode.json HTTP/1.1||-||83||-||0.002||Apache-HttpClient/4.5 (Java/1.7.0_76)||-||us-address.lemall.com||up_addr:10.120.16.171:6011||up_resp:0.001||up_status:200||10.212.23.192
[200]||24/Dec/2016:01:52:56 -0800||10.212.16.207||-||POST /api/web/query/childArea.json HTTP/1.1||-||2555||-||0.053||Jakarta Commons-HttpClient/3.1||-||us.address.go.lemall.com||up_addr:10.120.16.171:6011||up_resp:0.052||up_status:200||10.212.23.192
[200]||24/Dec/2016:01:53:44 -0800||10.212.16.193||-||POST /api/web/query/queryAddressByZipCode.json HTTP/1.1||-||83||-||0.002||Apache-HttpClient/4.5 (Java/1.7.0_76)||-||us-address.lemall.com||up_addr:10.120.16.171:6011||up_resp:0.002||up_status:200||10.212.23.192
[200]||24/Dec/2016:02:40:31 -0800||10.212.16.191||-||POST /api/web/query/queryAddressByZipCode.json HTTP/1.1||-||163||-||0.021||Apache-HttpClient/4.5.1 (Java/1.7.0_76)||-||us.address.go.lemall.com||up_addr:10.120.16.171:6011||up_resp:0.021||up_status:200||10.212.23.192
[200]||24/Dec/2016:02:50:16 -0800||10.212.16.183||-||POST /api/web/query/queryAddressByZipCode.json HTTP/1.1||-||165||-||0.021||Apache-HttpClient/4.5.1 (Java/1.7.0_76)||-||us.address.go.lemall.com||up_addr:10.120.16.171:6011||up_resp:0.021||up_status:200||10.212.23.192
[200]||24/Dec/2016:03:00:15 -0800||10.212.16.218||-||POST /api/web/query/queryAddressByZipCode.json HTTP/1.1||-||165||-||0.028||Apache-HttpClient/4.5.1 (Java/1.7.0_76)||-||us.address.go.lemall.com||up_addr:10.120.16.152:6011||up_resp:0.028||up_status:200||10.212.23.192
[200]||24/Dec/2016:03:00:32 -0800||10.212.16.206||-||POST /api/web/query/queryAddressByZipCode.json HTTP/1.1||-||163||-||0.027||Apache-HttpClient/4.5.1 (Java/1.7.0_76)||-||us.address.go.lemall.com||up_addr:10.120.16.132:6011||up_resp:0.027||up_status:200||10.212.23.192
[200]||24/Dec/2016:03:20:15 -0800||10.212.16.173||-||POST /api/web/query/queryAddressByZipCode.json HTTP/1.1||-||165||-||0.028||Apache-HttpClient/4.5.1 (Java/1.7.0_76)||-||us.address.go.lemall.com||up_addr:10.120.16.103:6011||up_resp:0.027||up_status:200||10.212.23.192
[200]||24/Dec/2016:03:30:15 -0800||10.212.16.192||-||POST /api/web/query/queryAddressByZipCode.json HTTP/1.1||-||165||-||0.022||Apache-HttpClient/4.5.1 (Java/1.7.0_76)||-||us.address.go.lemall.com||up_addr:10.120.16.171:6011||up_resp:0.022||up_status:200||10.212.23.192
[200]||24/Dec/2016:04:00:32 -0800||10.212.16.195||-||POST /api/web/query/queryAddressByZipCode.json HTTP/1.1||-||165||-||0.022||Apache-HttpClient/4.5.1 (Java/1.7.0_76)||-||us.address.go.lemall.com||up_addr:10.120.16.160:6011||up_resp:0.022||up_status:200||10.212.23.192
[200]||24/Dec/2016:04:30:15 -0800||10.212.16.213||-||POST /api/web/query/queryAddressByZipCode.json HTTP/1.1||-||165||-||0.022||Apache-HttpClient/4.5.1 (Java/1.7.0_76)||-||us.address.go.lemall.com||up_addr:10.120.16.160:6011||up_resp:0.022||up_status:200||10.212.23.192
[200]||24/Dec/2016:04:40:15 -0800||10.212.16.177||-||POST /api/web/query/queryAddressByZipCode.json HTTP/1.1||-||165||-||0.020||Apache-HttpClient/4.5.1 (Java/1.7.0_76)||-||us.address.go.lemall.com||up_addr:10.120.16.160:6011||up_resp:0.020||up_status:200||10.212.23.192
[200]||24/Dec/2016:05:10:32 -0800||10.212.16.202||-||POST /api/web/query/queryAddressByZipCode.json HTTP/1.1||-||163||-||0.025||Apache-HttpClient/4.5.1 (Java/1.7.0_76)||-||us.address.go.lemall.com||up_addr:10.120.16.160:6011||up_resp:0.025||up_status:200||10.212.23.192
[200]||24/Dec/2016:05:20:15 -0800||10.212.16.207||-||POST /api/web/query/queryAddressByZipCode.json HTTP/1.1||-||163||-||0.022||Apache-HttpClient/4.5.1 (Java/1.7.0_76)||-||us.address.go.lemall.com||up_addr:10.120.16.149:6011||up_resp:0.022||up_status:200||10.212.23.192
[200]||24/Dec/2016:05:20:32 -0800||10.212.16.183||-||POST /api/web/query/queryAddressByZipCode.json HTTP/1.1||-||165||-||0.021||Apache-HttpClient/4.5.1 (Java/1.7.0_76)||-||us.address.go.lemall.com||up_addr:10.120.16.141:6011||up_resp:0.021||up_status:200||10.212.23.192
[200]||24/Dec/2016:06:00:32 -0800||10.212.16.204||-||POST /api/web/query/queryAddressByZipCode.json HTTP/1.1||-||163||-||0.021||Apache-HttpClient/4.5.1 (Java/1.7.0_76)||-||us.address.go.lemall.com||up_addr:10.120.16.160:6011||up_resp:0.021||up_status:200||10.212.23.192
[200]||24/Dec/2016:06:09:53 -0800||10.212.16.205||-||POST /api/web/query/queryAddressByZipCode.json HTTP/1.1||-||87||-||0.019||Apache-HttpClient/4.5 (Java/1.7.0_76)||-||us-address.lemall.com||up_addr:10.120.16.149:6011||up_resp:0.019||up_status:200||10.212.23.192
[200]||24/Dec/2016:06:10:15 -0800||10.212.16.213||-||POST /api/web/query/queryAddressByZipCode.json HTTP/1.1||-||165||-||0.021||Apache-HttpClient/4.5.1 (Java/1.7.0_76)||-||us.address.go.lemall.com||up_addr:10.120.16.141:6011||up_resp:0.021||up_status:200||10.212.23.192
[200]||24/Dec/2016:06:50:15 -0800||10.212.16.169||-||POST /api/web/query/queryAddressByZipCode.json HTTP/1.1||-||163||-||0.023||Apache-HttpClient/4.5.1 (Java/1.7.0_76)||-||us.address.go.lemall.com||up_addr:10.120.16.160:6011||up_resp:0.023||up_status:200||10.212.23.192
[200]||24/Dec/2016:07:00:32 -0800||10.212.16.204||-||POST /api/web/query/queryAddressByZipCode.json HTTP/1.1||-||163||-||0.021||Apache-HttpClient/4.5.1 (Java/1.7.0_76)||-||us.address.go.lemall.com||up_addr:10.120.16.149:6011||up_resp:0.021||up_status:200||10.212.23.192
[200]||24/Dec/2016:07:10:15 -0800||10.212.16.194||-||POST /api/web/query/queryAddressByZipCode.json HTTP/1.1||-||163||-||0.029||Apache-HttpClient/4.5.1 (Java/1.7.0_76)||-||us.address.go.lemall.com||up_addr:10.120.16.141:6011||up_resp:0.028||up_status:200||10.212.23.192
[200]||24/Dec/2016:07:18:21 -0800||10.212.16.209||-||POST /api/web/query/queryAddressByZipCode.json HTTP/1.1||-||161||-||0.028||Apache-HttpClient/4.5 (Java/1.7.0_76)||-||us-address.lemall.com||up_addr:10.120.16.152:6011||up_resp:0.028||up_status:200||10.212.23.192
[200]||24/Dec/2016:07:20:15 -0800||10.212.16.167||-||POST /api/web/query/queryAddressByZipCode.json HTTP/1.1||-||165||-||0.023||Apache-HttpClient/4.5.1 (Java/1.7.0_76)||-||us.address.go.lemall.com||up_addr:10.120.16.149:6011||up_resp:0.022||up_status:200||10.212.23.192
[200]||24/Dec/2016:07:30:32 -0800||10.212.16.177||-||POST /api/web/query/queryAddressByZipCode.json HTTP/1.1||-||165||-||0.020||Apache-HttpClient/4.5.1 (Java/1.7.0_76)||-||us.address.go.lemall.com||up_addr:10.120.16.171:6011||up_resp:0.020||up_status:200||10.212.23.192
[200]||24/Dec/2016:07:46:51 -0800||10.212.16.179||-||POST /api/web/query/childArea.json HTTP/1.1||-||2555||-||0.059||Jakarta Commons-HttpClient/3.1||-||us.address.go.lemall.com||up_addr:10.120.16.99:6011||up_resp:0.059||up_status:200||10.212.23.192
[200]||24/Dec/2016:08:04:09 -0800||10.212.16.185||-||POST /api/web/query/childArea.json HTTP/1.1||-||2555||-||0.074||Jakarta Commons-HttpClient/3.1||-||us.address.go.lemall.com||up_addr:10.120.16.171:6011||up_resp:0.074||up_status:200||10.212.23.192
[200]||24/Dec/2016:08:10:35 -0800||10.212.16.209||-||POST /api/web/query/queryAddressByZipCode.json HTTP/1.1||-||164||-||0.021||Apache-HttpClient/4.5 (Java/1.7.0_76)||-||us-address.lemall.com||up_addr:10.120.16.160:6011||up_resp:0.021||up_status:200||10.212.23.192
[200]||24/Dec/2016:08:20:32 -0800||10.212.16.194||-||POST /api/web/query/queryAddressByZipCode.json HTTP/1.1||-||163||-||0.023||Apache-HttpClient/4.5.1 (Java/1.7.0_76)||-||us.address.go.lemall.com||up_addr:10.120.16.149:6011||up_resp:0.022||up_status:200||10.212.23.192
[200]||24/Dec/2016:08:33:40 -0800||10.212.16.189||-||POST /api/web/query/childArea.json HTTP/1.1||-||2555||-||0.049||Jakarta Commons-HttpClient/3.1||-||us.address.go.lemall.com||up_addr:10.120.16.160:6011||up_resp:0.049||up_status:200||10.212.23.192
[200]||24/Dec/2016:08:39:35 -0800||10.212.16.171||-||POST /api/web/query/childArea.json HTTP/1.1||-||2555||-||0.063||Jakarta Commons-HttpClient/3.1||-||us.address.go.lemall.com||up_addr:10.120.16.149:6011||up_resp:0.063||up_status:200||10.212.23.192
[200]||24/Dec/2016:08:50:16 -0800||10.212.16.198||-||POST /api/web/query/queryAddressByZipCode.json HTTP/1.1||-||163||-||0.021||Apache-HttpClient/4.5.1 (Java/1.7.0_76)||-||us.address.go.lemall.com||up_addr:10.120.16.152:6011||up_resp:0.021||up_status:200||10.212.23.192
[200]||24/Dec/2016:08:53:05 -0800||10.212.16.213||-||POST /api/web/query/queryAddressByZipCode.json HTTP/1.1||-||161||-||0.023||Apache-HttpClient/4.5 (Java/1.7.0_76)||-||us-address.lemall.com||up_addr:10.120.16.171:6011||up_resp:0.023||up_status:200||10.212.23.192
[200]||24/Dec/2016:09:00:32 -0800||10.212.16.164||-||POST /api/web/query/queryAddressByZipCode.json HTTP/1.1||-||163||-||0.022||Apache-HttpClient/4.5.1 (Java/1.7.0_76)||-||us.address.go.lemall.com||up_addr:10.120.16.132:6011||up_resp:0.022||up_status:200||10.212.23.192
[200]||24/Dec/2016:09:01:42 -0800||10.212.16.215||-||POST /api/web/query/queryAddressByZipCode.json HTTP/1.1||-||83||-||0.001||Apache-HttpClient/4.5 (Java/1.7.0_76)||-||us-address.lemall.com||up_addr:10.120.16.103:6011||up_resp:0.001||up_status:200||10.212.23.192
[200]||24/Dec/2016:09:07:04 -0800||10.212.16.197||-||GET /api/web/query/childArea.jsonp?parent_id=0&callback=jQuery17205001819985918701_1482581104739&_=1482581106545 HTTP/1.1||parent_id=0&callback=jQuery17205001819985918701_1482581104739&_=1482581106545||448||http://us.lemall.com/us/product/product-pid-409900003043.html?cps_id=DAGA_im_20160317_03||0.054||Mozilla/5.0 (Linux; Android 4.4.2; es-us; SAMSUNG SM-T230NU Build/KOT49H) AppleWebKit/537.36 (KHTML, like Gecko) Version/1.5 Chrome/28.0.1500.94 Safari/537.36||tj2_lc=1c87a0ab7d1e73dad0ab51491cf26660; tj_sg=1; COOKIE_CPS_ID=C_DAGA_im_20160317_03; COOKIE_TOKEN_ID_N=0b908bf3cb703728ae2b84d882b93859; COOKIE_USER_IP=10.212.16.197; COOKIE_USER_NAME=; COOKIE_NICKNAME=; COOKIE_USER_LEVEL_ID=1; COOKIE_SESSION_ID=7BBDA0E5633AB1579164B54C3A04761E; COOKIE_TOKEN_ID=0b908bf3cb703728ae2b84d882b93859; COOKIE_TOKEN_DATE=1482599222851; COOKIE_USER_ID=; COOKIE_USER_TYPE=; COOKIE_LOGIN_TYPE=; COOKIE_USER_INFO=||us.address.go.lemall.com||up_addr:10.120.16.141:6011||up_resp:0.053||up_status:200||10.212.23.192
[200]||24/Dec/2016:09:10:16 -0800||10.212.16.162||-||POST /api/web/query/queryAddressByZipCode.json HTTP/1.1||-||163||-||0.022||Apache-HttpClient/4.5.1 (Java/1.7.0_76)||-||us.address.go.lemall.com||up_addr:10.120.16.152:6011||up_resp:0.022||up_status:200||10.212.23.192
[200]||24/Dec/2016:09:20:18 -0800||10.212.16.197||-||GET /api/web/query/getAreaInfo.json?area_ids=40_92_26010 HTTP/1.1||area_ids=40_92_26010||597||-||0.014||Java/1.7.0_76||-||us.address.go.lemall.com||up_addr:10.120.16.132:6011||up_resp:0.013||up_status:200||10.212.23.192
[200]||24/Dec/2016:09:38:46 -0800||10.212.16.215||-||POST /api/web/query/childArea.json HTTP/1.1||-||2555||-||0.049||Jakarta Commons-HttpClient/3.1||-||us.address.go.lemall.com||up_addr:10.120.16.160:6011||up_resp:0.049||up_status:200||10.212.23.192
[200]||24/Dec/2016:09:40:16 -0800||10.212.16.203||-||POST /api/web/query/queryAddressByZipCode.json HTTP/1.1||-||163||-||0.026||Apache-HttpClient/4.5.1 (Java/1.7.0_76)||-||us.address.go.lemall.com||up_addr:10.120.16.149:6011||up_resp:0.025||up_status:200||10.212.23.192
[200]||24/Dec/2016:09:50:16 -0800||10.212.16.199||-||POST /api/web/query/queryAddressByZipCode.json HTTP/1.1||-||165||-||0.022||Apache-HttpClient/4.5.1 (Java/1.7.0_76)||-||us.address.go.lemall.com||up_addr:10.120.16.141:6011||up_resp:0.021||up_status:200||10.212.23.192
[200]||24/Dec/2016:09:50:32 -0800||10.212.16.173||-||POST /api/web/query/queryAddressByZipCode.json HTTP/1.1||-||165||-||0.022||Apache-HttpClient/4.5.1 (Java/1.7.0_76)||-||us.address.go.lemall.com||up_addr:10.120.16.152:6011||up_resp:0.022||up_status:200||10.212.23.192
[200]||24/Dec/2016:10:00:16 -0800||10.212.16.196||-||POST /api/web/query/queryAddressByZipCode.json HTTP/1.1||-||163||-||0.022||Apache-HttpClient/4.5.1 (Java/1.7.0_76)||-||us.address.go.lemall.com||up_addr:10.120.16.171:6011||up_resp:0.022||up_status:200||10.212.23.192
[200]||24/Dec/2016:10:30:16 -0800||10.212.16.165||-||POST /api/web/query/queryAddressByZipCode.json HTTP/1.1||-||165||-||0.027||Apache-HttpClient/4.5.1 (Java/1.7.0_76)||-||us.address.go.lemall.com||up_addr:10.120.16.160:6011||up_resp:0.026||up_status:200||10.212.23.192
[200]||24/Dec/2016:10:50:32 -0800||10.212.16.207||-||POST /api/web/query/queryAddressByZipCode.json HTTP/1.1||-||163||-||0.023||Apache-HttpClient/4.5.1 (Java/1.7.0_76)||-||us.address.go.lemall.com||up_addr:10.120.16.149:6011||up_resp:0.022||up_status:200||10.212.23.192
[200]||24/Dec/2016:11:00:33 -0800||10.212.16.192||-||POST /api/web/query/queryAddressByZipCode.json HTTP/1.1||-||165||-||0.022||Apache-HttpClient/4.5.1 (Java/1.7.0_76)||-||us.address.go.lemall.com||up_addr:10.120.16.160:6011||up_resp:0.021||up_status:200||10.212.23.192
[200]||24/Dec/2016:11:10:16 -0800||10.212.16.205||-||POST /api/web/query/queryAddressByZipCode.json HTTP/1.1||-||165||-||0.022||Apache-HttpClient/4.5.1 (Java/1.7.0_76)||-||us.address.go.lemall.com||up_addr:10.120.16.160:6011||up_resp:0.021||up_status:200||10.212.23.192
[200]||24/Dec/2016:11:10:32 -0800||10.120.0.149||-||POST /api/web/query/queryAddressByZipCode.json HTTP/1.1||-||163||-||0.023||Apache-HttpClient/4.5.1 (Java/1.7.0_76)||-||us.address.go.lemall.com||up_addr:10.120.16.149:6011||up_resp:0.023||up_status:200||10.212.23.192
[200]||24/Dec/2016:11:12:30 -0800||10.212.16.201||-||POST /api/web/query/queryAddressByZipCode.json HTTP/1.1||-||167||-||0.026||Apache-HttpClient/4.5 (Java/1.7.0_76)||-||us-address.lemall.com||up_addr:10.120.16.141:6011||up_resp:0.026||up_status:200||10.212.23.192
[200]||24/Dec/2016:11:30:16 -0800||10.212.16.165||-||POST /api/web/query/queryAddressByZipCode.json HTTP/1.1||-||165||-||0.022||Apache-HttpClient/4.5.1 (Java/1.7.0_76)||-||us.address.go.lemall.com||up_addr:10.120.16.99:6011||up_resp:0.021||up_status:200||10.212.23.192
[200]||24/Dec/2016:11:40:32 -0800||10.212.16.207||-||POST /api/web/query/queryAddressByZipCode.json HTTP/1.1||-||163||-||0.021||Apache-HttpClient/4.5.1 (Java/1.7.0_76)||-||us.address.go.lemall.com||up_addr:10.120.16.141:6011||up_resp:0.021||up_status:200||10.212.23.192
[200]||24/Dec/2016:11:54:34 -0800||10.212.16.186||-||POST /api/web/query/childArea.json HTTP/1.1||-||2555||-||0.056||Jakarta Commons-HttpClient/3.1||-||us.address.go.lemall.com||up_addr:10.120.16.149:6011||up_resp:0.056||up_status:200||10.212.23.192
[200]||24/Dec/2016:12:00:16 -0800||10.212.16.185||-||POST /api/web/query/queryAddressByZipCode.json HTTP/1.1||-||165||-||0.021||Apache-HttpClient/4.5.1 (Java/1.7.0_76)||-||us.address.go.lemall.com||up_addr:10.120.16.141:6011||up_resp:0.021||up_status:200||10.212.23.192
[200]||24/Dec/2016:12:00:33 -0800||10.212.16.194||-||POST /api/web/query/queryAddressByZipCode.json HTTP/1.1||-||165||-||0.022||Apache-HttpClient/4.5.1 (Java/1.7.0_76)||-||us.address.go.lemall.com||up_addr:10.120.16.132:6011||up_resp:0.021||up_status:200||10.212.23.192
[200]||24/Dec/2016:12:10:16 -0800||10.212.16.208||-||POST /api/web/query/queryAddressByZipCode.json HTTP/1.1||-||165||-||0.022||Apache-HttpClient/4.5.1 (Java/1.7.0_76)||-||us.address.go.lemall.com||up_addr:10.120.16.152:6011||up_resp:0.022||up_status:200||10.212.23.192
[200]||24/Dec/2016:12:20:33 -0800||10.212.16.172||-||POST /api/web/query/queryAddressByZipCode.json HTTP/1.1||-||165||-||0.021||Apache-HttpClient/4.5.1 (Java/1.7.0_76)||-||us.address.go.lemall.com||up_addr:10.120.16.171:6011||up_resp:0.021||up_status:200||10.212.23.192
[200]||24/Dec/2016:12:46:41 -0800||10.212.16.172||-||POST /api/web/query/queryAddressByZipCode.json HTTP/1.1||-||83||-||0.002||Apache-HttpClient/4.5 (Java/1.7.0_76)||-||us-address.lemall.com||up_addr:10.120.16.171:6011||up_resp:0.002||up_status:200||10.212.23.192
[200]||24/Dec/2016:12:50:33 -0800||10.212.16.171||-||POST /api/web/query/queryAddressByZipCode.json HTTP/1.1||-||163||-||0.021||Apache-HttpClient/4.5.1 (Java/1.7.0_76)||-||us.address.go.lemall.com||up_addr:10.120.16.160:6011||up_resp:0.021||up_status:200||10.212.23.192
[200]||24/Dec/2016:13:00:33 -0800||10.212.16.217||-||POST /api/web/query/queryAddressByZipCode.json HTTP/1.1||-||163||-||0.022||Apache-HttpClient/4.5.1 (Java/1.7.0_76)||-||us.address.go.lemall.com||up_addr:10.120.16.149:6011||up_resp:0.021||up_status:200||10.212.23.192
[200]||24/Dec/2016:13:02:01 -0800||10.212.16.179||-||GET /api/web/query/childArea.jsonp?parent_id=0&_=1482613321331&_=1482613321332&callback=jsonp5 HTTP/1.1||parent_id=0&_=1482613321331&_=1482613321332&callback=jsonp5||421||http://us.m.lemall.com/us/products/view/pid-409900003043.html||0.162||Mozilla/5.0 (Linux; Android 4.4.2; SM-T217S Build/KOT49H) AppleWebKit/537.36 (KHTML, like Gecko) Chrome/51.0.2704.81 Safari/537.36||tj2_lc=2310c0b6cd2eaba9a7453d265e796ffd; sourceUrl=http%3A//us.lemall.com/us/product/product-pid-409900003043.html%3Fcps_id%3DDAGA_im_20160317_03; tj_sg=1; tj_sid=5e17695e94c86750ae453662e746bcc7||us.address.go.lemall.com||up_addr:10.120.16.132:6011||up_resp:0.162||up_status:200||10.212.23.192
[200]||24/Dec/2016:13:11:57 -0800||10.212.16.215||-||POST /api/web/query/childArea.json HTTP/1.1||-||2555||-||0.061||Jakarta Commons-HttpClient/3.1||-||us.address.go.lemall.com||up_addr:10.120.16.103:6011||up_resp:0.061||up_status:200||10.212.23.192
[200]||24/Dec/2016:13:20:45 -0800||10.212.16.174||-||POST /api/web/query/childArea.json HTTP/1.1||-||2555||-||0.038||Jakarta Commons-HttpClient/3.1||-||us.address.go.lemall.com||up_addr:10.120.16.152:6011||up_resp:0.038||up_status:200||10.212.23.192
[200]||24/Dec/2016:13:40:16 -0800||10.212.16.164||-||POST /api/web/query/queryAddressByZipCode.json HTTP/1.1||-||165||-||0.020||Apache-HttpClient/4.5.1 (Java/1.7.0_76)||-||us.address.go.lemall.com||up_addr:10.120.16.149:6011||up_resp:0.020||up_status:200||10.212.23.192
[200]||24/Dec/2016:14:00:16 -0800||10.120.0.149||-||POST /api/web/query/queryAddressByZipCode.json HTTP/1.1||-||165||-||0.022||Apache-HttpClient/4.5.1 (Java/1.7.0_76)||-||us.address.go.lemall.com||up_addr:10.120.16.152:6011||up_resp:0.022||up_status:200||10.212.23.192
[404]||24/Dec/2016:14:19:35 -0800||10.212.16.163||-||GET / HTTP/1.1||-||170||-||0.002||Mozilla/5.0 (Macintosh; Intel Mac OS X 10_11_2) AppleWebKit/537.36 (KHTML, like Gecko) Chrome/46.0.2490.86 Safari/537.36||-||us-address.lemall.com||up_addr:10.120.16.132:6011||up_resp:0.001||up_status:404||10.212.23.192
[200]||24/Dec/2016:14:20:16 -0800||10.212.16.162||-||POST /api/web/query/queryAddressByZipCode.json HTTP/1.1||-||165||-||0.022||Apache-HttpClient/4.5.1 (Java/1.7.0_76)||-||us.address.go.lemall.com||up_addr:10.120.16.103:6011||up_resp:0.021||up_status:200||10.212.23.192
[200]||24/Dec/2016:14:20:33 -0800||10.212.16.198||-||POST /api/web/query/queryAddressByZipCode.json HTTP/1.1||-||165||-||0.021||Apache-HttpClient/4.5.1 (Java/1.7.0_76)||-||us.address.go.lemall.com||up_addr:10.120.16.99:6011||up_resp:0.020||up_status:200||10.212.23.192
[200]||24/Dec/2016:14:30:16 -0800||10.212.16.212||-||POST /api/web/query/queryAddressByZipCode.json HTTP/1.1||-||163||-||0.020||Apache-HttpClient/4.5.1 (Java/1.7.0_76)||-||us.address.go.lemall.com||up_addr:10.120.16.141:6011||up_resp:0.020||up_status:200||10.212.23.192
[200]||24/Dec/2016:14:40:16 -0800||10.212.16.189||-||POST /api/web/query/queryAddressByZipCode.json HTTP/1.1||-||165||-||0.021||Apache-HttpClient/4.5.1 (Java/1.7.0_76)||-||us.address.go.lemall.com||up_addr:10.120.16.171:6011||up_resp:0.021||up_status:200||10.212.23.192
[200]||24/Dec/2016:14:45:20 -0800||10.212.16.162||-||POST /api/web/query/childArea.json HTTP/1.1||-||2555||-||0.062||Jakarta Commons-HttpClient/3.1||-||us.address.go.lemall.com||up_addr:10.120.16.160:6011||up_resp:0.062||up_status:200||10.212.23.192
[200]||24/Dec/2016:14:49:27 -0800||10.212.16.167||-||POST /api/web/query/queryAddressByZipCode.json HTTP/1.1||-||87||-||0.019||Apache-HttpClient/4.5 (Java/1.7.0_76)||-||us-address.lemall.com||up_addr:10.120.16.149:6011||up_resp:0.019||up_status:200||10.212.23.192
[200]||24/Dec/2016:15:00:16 -0800||10.120.0.149||-||POST /api/web/query/queryAddressByZipCode.json HTTP/1.1||-||163||-||0.021||Apache-HttpClient/4.5.1 (Java/1.7.0_76)||-||us.address.go.lemall.com||up_addr:10.120.16.171:6011||up_resp:0.021||up_status:200||10.212.23.192
[200]||24/Dec/2016:15:00:33 -0800||10.212.16.161||-||POST /api/web/query/queryAddressByZipCode.json HTTP/1.1||-||163||-||0.022||Apache-HttpClient/4.5.1 (Java/1.7.0_76)||-||us.address.go.lemall.com||up_addr:10.120.16.160:6011||up_resp:0.021||up_status:200||10.212.23.192
[200]||24/Dec/2016:15:10:59 -0800||10.212.16.204||-||POST /api/web/query/childArea.json HTTP/1.1||-||2555||-||0.052||Jakarta Commons-HttpClient/3.1||-||us.address.go.lemall.com||up_addr:10.120.16.103:6011||up_resp:0.052||up_status:200||10.212.23.192
[200]||24/Dec/2016:15:34:53 -0800||10.212.16.188||-||POST /api/web/query/queryAddressByZipCode.json HTTP/1.1||-||164||-||0.024||Apache-HttpClient/4.5 (Java/1.7.0_76)||-||us-address.lemall.com||up_addr:10.120.16.160:6011||up_resp:0.024||up_status:200||10.212.23.192
[200]||24/Dec/2016:16:10:16 -0800||10.212.16.183||-||POST /api/web/query/queryAddressByZipCode.json HTTP/1.1||-||163||-||0.022||Apache-HttpClient/4.5.1 (Java/1.7.0_76)||-||us.address.go.lemall.com||up_addr:10.120.16.99:6011||up_resp:0.022||up_status:200||10.212.23.192
[200]||24/Dec/2016:16:20:16 -0800||10.212.16.178||-||POST /api/web/query/queryAddressByZipCode.json HTTP/1.1||-||163||-||0.020||Apache-HttpClient/4.5.1 (Java/1.7.0_76)||-||us.address.go.lemall.com||up_addr:10.120.16.141:6011||up_resp:0.020||up_status:200||10.212.23.192
[200]||24/Dec/2016:16:36:20 -0800||10.212.16.198||-||GET /api/web/query/getAreaInfo.json?area_ids=10_62_6875 HTTP/1.1||area_ids=10_62_6875||592||-||0.023||Java/1.7.0_76||-||us.address.go.lemall.com||up_addr:10.120.16.149:6011||up_resp:0.023||up_status:200||10.212.23.192
[200]||24/Dec/2016:16:40:17 -0800||10.212.16.194||-||POST /api/web/query/queryAddressByZipCode.json HTTP/1.1||-||165||-||0.023||Apache-HttpClient/4.5.1 (Java/1.7.0_76)||-||us.address.go.lemall.com||up_addr:10.120.16.103:6011||up_resp:0.023||up_status:200||10.212.23.192
[200]||24/Dec/2016:17:10:17 -0800||10.212.16.177||-||POST /api/web/query/queryAddressByZipCode.json HTTP/1.1||-||163||-||0.022||Apache-HttpClient/4.5.1 (Java/1.7.0_76)||-||us.address.go.lemall.com||up_addr:10.120.16.171:6011||up_resp:0.022||up_status:200||10.212.23.192
[200]||24/Dec/2016:17:17:33 -0800||10.212.16.197||-||POST /api/web/query/childArea.json HTTP/1.1||-||2555||-||0.080||Jakarta Commons-HttpClient/3.1||-||us.address.go.lemall.com||up_addr:10.120.16.160:6011||up_resp:0.079||up_status:200||10.212.23.192
[200]||24/Dec/2016:17:18:56 -0800||10.212.16.163||-||POST /api/web/query/queryAddressByZipCode.json HTTP/1.1||-||201||-||0.023||Jakarta Commons-HttpClient/3.0||-||us.address.go.lemall.com||up_addr:10.120.16.149:6011||up_resp:0.023||up_status:200||10.212.23.192
[200]||24/Dec/2016:17:20:33 -0800||10.212.16.171||-||POST /api/web/query/queryAddressByZipCode.json HTTP/1.1||-||165||-||0.021||Apache-HttpClient/4.5.1 (Java/1.7.0_76)||-||us.address.go.lemall.com||up_addr:10.120.16.141:6011||up_resp:0.021||up_status:200||10.212.23.192
[200]||24/Dec/2016:17:21:13 -0800||10.212.16.166||-||POST /api/web/query/queryAddressByZipCode.json HTTP/1.1||-||167||-||0.022||Apache-HttpClient/4.5 (Java/1.7.0_76)||-||us-address.lemall.com||up_addr:10.120.16.152:6011||up_resp:0.022||up_status:200||10.212.23.192
[200]||24/Dec/2016:17:30:17 -0800||10.212.16.205||-||POST /api/web/query/queryAddressByZipCode.json HTTP/1.1||-||165||-||0.023||Apache-HttpClient/4.5.1 (Java/1.7.0_76)||-||us.address.go.lemall.com||up_addr:10.120.16.152:6011||up_resp:0.023||up_status:200||10.212.23.192
[200]||24/Dec/2016:17:30:33 -0800||10.212.16.179||-||POST /api/web/query/queryAddressByZipCode.json HTTP/1.1||-||163||-||0.022||Apache-HttpClient/4.5.1 (Java/1.7.0_76)||-||us.address.go.lemall.com||up_addr:10.120.16.132:6011||up_resp:0.022||up_status:200||10.212.23.192
[200]||24/Dec/2016:18:20:17 -0800||10.212.16.209||-||POST /api/web/query/queryAddressByZipCode.json HTTP/1.1||-||165||-||0.021||Apache-HttpClient/4.5.1 (Java/1.7.0_76)||-||us.address.go.lemall.com||up_addr:10.120.16.152:6011||up_resp:0.020||up_status:200||10.212.23.192
[200]||24/Dec/2016:18:29:45 -0800||10.212.16.202||-||GET /api/web/query/getAreaInfo.json?area_ids=32_84_22122 HTTP/1.1||area_ids=32_84_22122||589||-||0.012||Java/1.7.0_76||-||us.address.go.lemall.com||up_addr:10.120.16.149:6011||up_resp:0.012||up_status:200||10.212.23.192
[200]||24/Dec/2016:18:40:17 -0800||10.212.16.188||-||POST /api/web/query/queryAddressByZipCode.json HTTP/1.1||-||163||-||0.020||Apache-HttpClient/4.5.1 (Java/1.7.0_76)||-||us.address.go.lemall.com||up_addr:10.120.16.141:6011||up_resp:0.020||up_status:200||10.212.23.192
[200]||24/Dec/2016:18:40:33 -0800||10.212.16.198||-||POST /api/web/query/queryAddressByZipCode.json HTTP/1.1||-||165||-||0.029||Apache-HttpClient/4.5.1 (Java/1.7.0_76)||-||us.address.go.lemall.com||up_addr:10.120.16.152:6011||up_resp:0.028||up_status:200||10.212.23.192
[200]||24/Dec/2016:19:00:17 -0800||10.212.16.162||-||POST /api/web/query/queryAddressByZipCode.json HTTP/1.1||-||163||-||0.022||Apache-HttpClient/4.5.1 (Java/1.7.0_76)||-||us.address.go.lemall.com||up_addr:10.120.16.141:6011||up_resp:0.021||up_status:200||10.212.23.192
[200]||24/Dec/2016:19:17:02 -0800||10.212.16.176||-||POST /api/web/query/childArea.json HTTP/1.1||-||115||-||0.029||Jakarta Commons-HttpClient/3.1||-||us.address.go.lemall.com||up_addr:10.120.16.132:6011||up_resp:0.028||up_status:200||10.212.23.192
[200]||24/Dec/2016:19:20:33 -0800||10.120.0.156||-||POST /api/web/query/queryAddressByZipCode.json HTTP/1.1||-||163||-||0.023||Apache-HttpClient/4.5.1 (Java/1.7.0_76)||-||us.address.go.lemall.com||up_addr:10.120.16.132:6011||up_resp:0.022||up_status:200||10.212.23.192
[200]||24/Dec/2016:19:20:50 -0800||10.212.16.198||-||POST /api/web/query/childArea.json HTTP/1.1||-||2555||-||0.051||Jakarta Commons-HttpClient/3.1||-||us.address.go.lemall.com||up_addr:10.120.16.103:6011||up_resp:0.051||up_status:200||10.212.23.192
[200]||24/Dec/2016:19:25:55 -0800||10.212.16.199||-||GET /api/web/query/childArea.jsonp?parent_id=0&_=1325471889747&_=1325471889748&callback=jsonp5 HTTP/1.1||parent_id=0&_=1325471889747&_=1325471889748&callback=jsonp5||421||http://us.m.lemall.com/us/products/view/pid-409900003043.html||0.044||Mozilla/5.0 (Linux; U; Android 4.4.2; es-es; SM-T210R Build/KOT49H) AppleWebKit/534.30 (KHTML, like Gecko) Version/4.0 Safari/534.30||tj2_lc=05e83e01c4218aca589f81d7ce637654||us.address.go.lemall.com||up_addr:10.120.16.149:6011||up_resp:0.044||up_status:200||10.212.23.192
[200]||24/Dec/2016:19:30:17 -0800||10.212.16.171||-||POST /api/web/query/queryAddressByZipCode.json HTTP/1.1||-||163||-||0.022||Apache-HttpClient/4.5.1 (Java/1.7.0_76)||-||us.address.go.lemall.com||up_addr:10.120.16.99:6011||up_resp:0.022||up_status:200||10.212.23.192
[200]||24/Dec/2016:19:41:20 -0800||10.212.16.174||-||GET /api/web/query/getAreaInfo.json?area_ids=1_53_603 HTTP/1.1||area_ids=1_53_603||585||-||0.017||Java/1.7.0_76||-||us.address.go.lemall.com||up_addr:10.120.16.99:6011||up_resp:0.017||up_status:200||10.212.23.192
[200]||24/Dec/2016:20:20:17 -0800||10.212.16.212||-||POST /api/web/query/queryAddressByZipCode.json HTTP/1.1||-||165||-||0.022||Apache-HttpClient/4.5.1 (Java/1.7.0_76)||-||us.address.go.lemall.com||up_addr:10.120.16.152:6011||up_resp:0.021||up_status:200||10.212.23.192
[200]||24/Dec/2016:20:30:17 -0800||10.212.16.203||-||POST /api/web/query/queryAddressByZipCode.json HTTP/1.1||-||163||-||0.026||Apache-HttpClient/4.5.1 (Java/1.7.0_76)||-||us.address.go.lemall.com||up_addr:10.120.16.132:6011||up_resp:0.026||up_status:200||10.212.23.192
[200]||24/Dec/2016:20:40:34 -0800||10.120.0.156||-||POST /api/web/query/queryAddressByZipCode.json HTTP/1.1||-||165||-||0.022||Apache-HttpClient/4.5.1 (Java/1.7.0_76)||-||us.address.go.lemall.com||up_addr:10.120.16.132:6011||up_resp:0.022||up_status:200||10.212.23.192
[200]||24/Dec/2016:21:10:34 -0800||10.212.16.188||-||POST /api/web/query/queryAddressByZipCode.json HTTP/1.1||-||163||-||0.021||Apache-HttpClient/4.5.1 (Java/1.7.0_76)||-||us.address.go.lemall.com||up_addr:10.120.16.103:6011||up_resp:0.021||up_status:200||10.212.23.192
[200]||24/Dec/2016:21:14:29 -0800||10.212.16.168||-||POST /api/web/query/queryAddressByZipCode.json HTTP/1.1||-||164||-||0.024||Apache-HttpClient/4.5 (Java/1.7.0_76)||-||us-address.lemall.com||up_addr:10.120.16.99:6011||up_resp:0.023||up_status:200||10.212.23.192
[200]||24/Dec/2016:21:30:34 -0800||10.212.16.161||-||POST /api/web/query/queryAddressByZipCode.json HTTP/1.1||-||165||-||0.021||Apache-HttpClient/4.5.1 (Java/1.7.0_76)||-||us.address.go.lemall.com||up_addr:10.120.16.152:6011||up_resp:0.021||up_status:200||10.212.23.192
[200]||24/Dec/2016:21:33:52 -0800||10.212.16.179||-||POST /api/web/query/queryAddressByZipCode.json HTTP/1.1||-||166||-||0.029||Apache-HttpClient/4.5 (Java/1.7.0_76)||-||us-address.lemall.com||up_addr:10.120.16.132:6011||up_resp:0.029||up_status:200||10.212.23.192
[200]||24/Dec/2016:21:40:17 -0800||10.212.16.193||-||POST /api/web/query/queryAddressByZipCode.json HTTP/1.1||-||165||-||0.021||Apache-HttpClient/4.5.1 (Java/1.7.0_76)||-||us.address.go.lemall.com||up_addr:10.120.16.141:6011||up_resp:0.021||up_status:200||10.212.23.192
[200]||24/Dec/2016:22:02:20 -0800||10.212.16.199||-||POST /api/web/query/childArea.json HTTP/1.1||-||2555||-||0.063||Jakarta Commons-HttpClient/3.1||-||us.address.go.lemall.com||up_addr:10.120.16.171:6011||up_resp:0.062||up_status:200||10.212.23.192
[200]||24/Dec/2016:22:10:34 -0800||10.120.0.160||-||POST /api/web/query/queryAddressByZipCode.json HTTP/1.1||-||163||-||0.021||Apache-HttpClient/4.5.1 (Java/1.7.0_76)||-||us.address.go.lemall.com||up_addr:10.120.16.99:6011||up_resp:0.021||up_status:200||10.212.23.192
[200]||24/Dec/2016:22:15:01 -0800||10.212.16.187||-||POST /api/web/query/queryAddressByZipCode.json HTTP/1.1||-||164||-||0.024||Apache-HttpClient/4.5 (Java/1.7.0_76)||-||us-address.lemall.com||up_addr:10.120.16.141:6011||up_resp:0.024||up_status:200||10.212.23.192
[200]||24/Dec/2016:22:20:17 -0800||10.212.16.187||-||POST /api/web/query/queryAddressByZipCode.json HTTP/1.1||-||163||-||0.020||Apache-HttpClient/4.5.1 (Java/1.7.0_76)||-||us.address.go.lemall.com||up_addr:10.120.16.141:6011||up_resp:0.020||up_status:200||10.212.23.192
[200]||24/Dec/2016:22:30:34 -0800||10.212.16.201||-||POST /api/web/query/queryAddressByZipCode.json HTTP/1.1||-||165||-||0.021||Apache-HttpClient/4.5.1 (Java/1.7.0_76)||-||us.address.go.lemall.com||up_addr:10.120.16.160:6011||up_resp:0.020||up_status:200||10.212.23.192
[200]||24/Dec/2016:23:00:17 -0800||10.212.16.217||-||POST /api/web/query/queryAddressByZipCode.json HTTP/1.1||-||165||-||0.022||Apache-HttpClient/4.5.1 (Java/1.7.0_76)||-||us.address.go.lemall.com||up_addr:10.120.16.152:6011||up_resp:0.021||up_status:200||10.212.23.192
[200]||24/Dec/2016:23:40:34 -0800||10.212.16.219||-||POST /api/web/query/queryAddressByZipCode.json HTTP/1.1||-||165||-||0.024||Apache-HttpClient/4.5.1 (Java/1.7.0_76)||-||us.address.go.lemall.com||up_addr:10.120.16.132:6011||up_resp:0.023||up_status:200||10.212.23.192
[200]||25/Dec/2016:00:00:17 -0800||10.212.16.185||-||POST /api/web/query/queryAddressByZipCode.json HTTP/1.1||-||163||-||0.023||Apache-HttpClient/4.5.1 (Java/1.7.0_76)||-||us.address.go.lemall.com||up_addr:10.120.16.171:6011||up_resp:0.023||up_status:200||10.212.23.192
